<?xml version="1.0" encoding="UTF-8" standalone="no"?>
<svg
   xmlns:dc="http://purl.org/dc/elements/1.1/"
   xmlns:cc="http://creativecommons.org/ns#"
   xmlns:rdf="http://www.w3.org/1999/02/22-rdf-syntax-ns#"
   xmlns:svg="http://www.w3.org/2000/svg"
   xmlns="http://www.w3.org/2000/svg"
   xmlns:sodipodi="http://sodipodi.sourceforge.net/DTD/sodipodi-0.dtd"
   xmlns:inkscape="http://www.inkscape.org/namespaces/inkscape"
   width="48"
   height="48"
   viewBox="0 0 12.7 12.7"
   version="1.1"
   id="svg8"
   inkscape:version="1.0.1 (3bc2e813f5, 2020-09-07, custom)"
   sodipodi:docname="fleur.svg">
  <defs
     id="defs2" />
  <sodipodi:namedview
     id="base"
     pagecolor="#ffffff"
     bordercolor="#666666"
     borderopacity="1.0"
     inkscape:pageopacity="0.0"
     inkscape:pageshadow="2"
     inkscape:zoom="16.020833"
     inkscape:cx="24"
     inkscape:cy="24"
     inkscape:document-units="px"
     inkscape:current-layer="layer1"
     inkscape:document-rotation="0"
     showgrid="true"
     units="px"
     inkscape:window-width="1906"
     inkscape:window-height="1008"
     inkscape:window-x="0"
     inkscape:window-y="0"
     inkscape:window-maximized="1">
    <inkscape:grid
       type="xygrid"
       id="grid18"
       empspacing="2" />
  </sodipodi:namedview>
  <metadata
     id="metadata5">
    <rdf:RDF>
      <cc:Work
         rdf:about="">
        <dc:format>image/svg+xml</dc:format>
        <dc:type
           rdf:resource="http://purl.org/dc/dcmitype/StillImage" />
        <dc:title></dc:title>
      </cc:Work>
    </rdf:RDF>
  </metadata>
  <g
     inkscape:label="Layer 1"
     inkscape:groupmode="layer"
     id="layer1">
    <circle
       style="fill:#ff0000;fill-opacity:0.33;stroke:none;stroke-width:0.231773"
       id="path9179"
       cx="6.3499999"
       cy="6.3499999"
       r="1.5875" />
    <path
       id="path9173"
       style="fill:#ff0000;fill-opacity:0.33;stroke:none;stroke-width:0.999999px;stroke-linecap:butt;stroke-linejoin:miter;stroke-opacity:1"
       d="M 24 3 L 15 12 L 33 12 L 24 3 z M 12 15 L 3 24 L 12 33 L 12 15 z M 36 15 L 36 33 L 45 24 L 36 15 z M 15 36 L 24 45 L 33 36 L 15 36 z "
       transform="scale(0.26458333)" />
    <path
       id="path878"
       style="fill:#ff0000;fill-opacity:1;stroke:none;stroke-width:1.25px;stroke-linecap:butt;stroke-linejoin:miter;stroke-opacity:1"
       d="M 24,0 0,24 24,48 48,24 Z m -0.0059,5.6621094 4.339843,4.3398436 H 27 V 10 h -6 v 0.002 H 19.654297 Z M 14,14 H 34 V 34 H 14 Z m 23.998047,5.654297 4.339844,4.339844 -4.339844,4.339843 V 27 H 38 v -6 h -0.002 z m -27.996094,0.01172 v 8.679687 L 5.6621094,24.005859 Z m 9.664063,18.332031 H 21 V 38 h 6 v -0.002 h 1.345703 l -4.339844,4.339844 z"
       transform="scale(0.26458333)"
       sodipodi:nodetypes="cccccccccccccccccccccccccccccccccccccc" />
    <path
       id="path9166"
       style="fill:#ff0000;fill-opacity:1;stroke:none;stroke-width:0.875992"
       d="M 24 16 A 7.9999997 7.9999997 0 0 0 16 24 A 7.9999997 7.9999997 0 0 0 24 32 A 7.9999997 7.9999997 0 0 0 32 24 A 7.9999997 7.9999997 0 0 0 24 16 z M 23.939453 20 A 3.9999999 3.9999999 0 0 1 24 20 A 3.9999999 3.9999999 0 0 1 28 24 A 3.9999999 3.9999999 0 0 1 24 28 A 3.9999999 3.9999999 0 0 1 20 24 A 3.9999999 3.9999999 0 0 1 23.939453 20 z "
       transform="scale(0.26458333)" />
  </g>
</svg>
