<?xml version="1.0" encoding="UTF-8" standalone="no"?>
<svg
   xmlns:dc="http://purl.org/dc/elements/1.1/"
   xmlns:cc="http://creativecommons.org/ns#"
   xmlns:rdf="http://www.w3.org/1999/02/22-rdf-syntax-ns#"
   xmlns:svg="http://www.w3.org/2000/svg"
   xmlns="http://www.w3.org/2000/svg"
   xmlns:sodipodi="http://sodipodi.sourceforge.net/DTD/sodipodi-0.dtd"
   xmlns:inkscape="http://www.inkscape.org/namespaces/inkscape"
   width="48"
   height="48"
   viewBox="0 0 12.7 12.7"
   version="1.1"
   id="svg8"
   inkscape:version="1.0.1 (3bc2e813f5, 2020-09-07, custom)"
   sodipodi:docname="bottom_tee.svg">
  <defs
     id="defs2" />
  <sodipodi:namedview
     id="base"
     pagecolor="#ffffff"
     bordercolor="#666666"
     borderopacity="1.0"
     inkscape:pageopacity="0.0"
     inkscape:pageshadow="2"
     inkscape:zoom="16.020833"
     inkscape:cx="24"
     inkscape:cy="24"
     inkscape:document-units="px"
     inkscape:current-layer="layer1"
     inkscape:document-rotation="0"
     showgrid="true"
     units="px"
     inkscape:window-width="1906"
     inkscape:window-height="1008"
     inkscape:window-x="0"
     inkscape:window-y="0"
     inkscape:window-maximized="1">
    <inkscape:grid
       type="xygrid"
       id="grid18"
       empspacing="2" />
  </sodipodi:namedview>
  <metadata
     id="metadata5">
    <rdf:RDF>
      <cc:Work
         rdf:about="">
        <dc:format>image/svg+xml</dc:format>
        <dc:type
           rdf:resource="http://purl.org/dc/dcmitype/StillImage" />
        <dc:title></dc:title>
      </cc:Work>
    </rdf:RDF>
  </metadata>
  <g
     inkscape:label="Layer 1"
     inkscape:groupmode="layer"
     id="layer1">
    <path
       id="path6562"
       style="fill:#ff0000;fill-opacity:0.33;stroke:none;stroke-width:0.264583px;stroke-linecap:butt;stroke-linejoin:miter;stroke-opacity:1"
       sodipodi:type="inkscape:offset"
       inkscape:radius="0.52968752"
       inkscape:original="M 5.8203125 2.1171875 L 5.8203125 9.5253906 L 2.1171875 9.5253906 L 2.1171875 10.583984 L 10.583984 10.583984 L 10.583984 9.5253906 L 6.8789062 9.5253906 L 6.8789062 2.1171875 L 5.8203125 2.1171875 z "
       d="M 5.8203125,1.5878906 A 0.52974049,0.52974049 0 0 0 5.2910156,2.1171875 V 8.9960938 H 2.1171875 A 0.52974049,0.52974049 0 0 0 1.5878906,9.5253906 v 1.0585934 a 0.52974049,0.52974049 0 0 0 0.5292969,0.529297 h 8.4667965 a 0.52974049,0.52974049 0 0 0 0.529297,-0.529297 V 9.5253906 A 0.52974049,0.52974049 0 0 0 10.583984,8.9960938 H 7.4082031 V 2.1171875 A 0.52974049,0.52974049 0 0 0 6.8789062,1.5878906 Z" />
    <path
       id="rect6555"
       style="fill:#ff0000;fill-opacity:1;stroke-width:0.875992"
       d="M 18 4 L 18 32 L 4 32 L 4 44 L 44 44 L 44 32 L 30 32 L 30 4 L 18 4 z M 22 8 L 26 8 L 26 36 L 40 36 L 40 40 L 8 40 L 8 36 L 22 36 L 22 8 z "
       transform="scale(0.26458333)" />
  </g>
</svg>
