<?xml version="1.0" encoding="UTF-8" standalone="no"?>
<svg
   xmlns:dc="http://purl.org/dc/elements/1.1/"
   xmlns:cc="http://creativecommons.org/ns#"
   xmlns:rdf="http://www.w3.org/1999/02/22-rdf-syntax-ns#"
   xmlns:svg="http://www.w3.org/2000/svg"
   xmlns="http://www.w3.org/2000/svg"
   xmlns:sodipodi="http://sodipodi.sourceforge.net/DTD/sodipodi-0.dtd"
   xmlns:inkscape="http://www.inkscape.org/namespaces/inkscape"
   width="48"
   height="48"
   viewBox="0 0 12.7 12.7"
   version="1.1"
   id="svg8"
   inkscape:version="1.0.1 (3bc2e813f5, 2020-09-07, custom)"
   sodipodi:docname="bottom_side.svg">
  <defs
     id="defs2" />
  <sodipodi:namedview
     id="base"
     pagecolor="#ffffff"
     bordercolor="#666666"
     borderopacity="1.0"
     inkscape:pageopacity="0.0"
     inkscape:pageshadow="2"
     inkscape:zoom="8.1922591"
     inkscape:cx="21.728146"
     inkscape:cy="24.671499"
     inkscape:document-units="px"
     inkscape:current-layer="layer1"
     inkscape:document-rotation="0"
     showgrid="true"
     units="px"
     inkscape:window-width="1906"
     inkscape:window-height="1008"
     inkscape:window-x="0"
     inkscape:window-y="0"
     inkscape:window-maximized="1">
    <inkscape:grid
       type="xygrid"
       id="grid18"
       empspacing="2" />
  </sodipodi:namedview>
  <metadata
     id="metadata5">
    <rdf:RDF>
      <cc:Work
         rdf:about="">
        <dc:format>image/svg+xml</dc:format>
        <dc:type
           rdf:resource="http://purl.org/dc/dcmitype/StillImage" />
        <dc:title></dc:title>
      </cc:Work>
    </rdf:RDF>
  </metadata>
  <g
     inkscape:label="Layer 1"
     inkscape:groupmode="layer"
     id="layer1">
    <rect
       style="fill:#ff0000;fill-opacity:0.33;stroke:none;stroke-width:0.231773"
       id="rect922"
       width="7.4083333"
       height="2.1166666"
       x="2.6458333"
       y="10.054167" />
    <path
       id="path919"
       style="fill:#ff0000;fill-opacity:0.33000001;stroke:none;stroke-width:1.25px;stroke-linecap:butt;stroke-linejoin:miter;stroke-opacity:1"
       sodipodi:type="inkscape:offset"
       inkscape:radius="-2"
       inkscape:original="M 18 0 L 18 18 L 10 18 L 24 32 L 38 18 L 30 18 L 30 0 L 18 0 z "
       d="m 20,2 v 16 a 2.0002,2.0002 0 0 1 -2,2 H 14.828125 L 24,29.171875 33.171875,20 H 30 A 2.0002,2.0002 0 0 1 28,18 V 2 Z"
       transform="scale(0.26458333)" />
    <path
       id="rect48"
       style="fill:#ff0000;stroke-width:2.64875;fill-opacity:1;stroke:none"
       d="M 8 36 L 8 48 L 40 48 L 40 36 L 8 36 z M 12 40 L 36 40 L 36 44 L 12 44 L 12 40 z "
       transform="scale(0.26458333)" />
    <path
       id="path878"
       style="fill:#ff0000;fill-opacity:1;stroke:none;stroke-width:1.25px;stroke-linecap:butt;stroke-linejoin:miter;stroke-opacity:1"
       d="M 18,0 V 18 H 10 L 24,32 38,18 H 30 V 0 Z m 4,4 h 4 v 17.998047 h 2.345703 l -4.339844,4.339844 -4.339843,-4.339844 H 22 Z"
       transform="scale(0.26458333)"
       sodipodi:nodetypes="cccccccccccccccc" />
  </g>
</svg>
