<?xml version="1.0" encoding="UTF-8" standalone="no"?>
<svg
   xmlns:dc="http://purl.org/dc/elements/1.1/"
   xmlns:cc="http://creativecommons.org/ns#"
   xmlns:rdf="http://www.w3.org/1999/02/22-rdf-syntax-ns#"
   xmlns:svg="http://www.w3.org/2000/svg"
   xmlns="http://www.w3.org/2000/svg"
   xmlns:sodipodi="http://sodipodi.sourceforge.net/DTD/sodipodi-0.dtd"
   xmlns:inkscape="http://www.inkscape.org/namespaces/inkscape"
   width="48"
   height="48"
   viewBox="0 0 12.7 12.7"
   version="1.1"
   id="svg8"
   inkscape:version="1.0.1 (3bc2e813f5, 2020-09-07, custom)"
   sodipodi:docname="crossed_circle.svg">
  <defs
     id="defs2" />
  <sodipodi:namedview
     id="base"
     pagecolor="#ffffff"
     bordercolor="#666666"
     borderopacity="1.0"
     inkscape:pageopacity="0.0"
     inkscape:pageshadow="2"
     inkscape:zoom="16.020833"
     inkscape:cx="24"
     inkscape:cy="24"
     inkscape:document-units="px"
     inkscape:current-layer="layer1"
     inkscape:document-rotation="0"
     showgrid="false"
     units="px"
     inkscape:window-width="1906"
     inkscape:window-height="1008"
     inkscape:window-x="0"
     inkscape:window-y="0"
     inkscape:window-maximized="1">
    <inkscape:grid
       type="xygrid"
       id="grid18"
       empspacing="2" />
  </sodipodi:namedview>
  <metadata
     id="metadata5">
    <rdf:RDF>
      <cc:Work
         rdf:about="">
        <dc:format>image/svg+xml</dc:format>
        <dc:type
           rdf:resource="http://purl.org/dc/dcmitype/StillImage" />
        <dc:title></dc:title>
      </cc:Work>
    </rdf:RDF>
  </metadata>
  <g
     inkscape:label="Layer 1"
     inkscape:groupmode="layer"
     id="layer1">
    <path
       id="path5001"
       style="fill:#ff0000;fill-opacity:0.33;stroke-width:0.231773"
       d="m 9.7007819,2.965593 a 4.7624997,4.7624997 0 0 0 -6.7183832,0.016809 4.7624997,4.7624997 0 0 0 0,6.7351921 4.7624997,4.7624997 0 0 0 6.735192,0 4.7624997,4.7624997 0 0 0 0,-6.7351921 4.7624997,4.7624997 0 0 0 -0.016809,-0.016809 z M 7.3161322,3.8871509 3.8871479,7.3161352 A 2.6458332,2.6458332 0 0 1 4.479108,4.4791111 2.6458332,2.6458332 0 0 1 7.3161322,3.8871509 Z M 8.8128415,5.3838603 A 2.6458332,2.6458332 0 0 1 8.2208813,8.2208844 2.6458332,2.6458332 0 0 1 5.3838572,8.8128446 Z" />
    <path
       id="path4993"
       style="fill:#ff0000;fill-opacity:1;stroke-width:0.875992"
       d="M 24 4 A 19.999999 19.999999 0 0 0 4 24 A 19.999999 19.999999 0 0 0 24 44 A 19.999999 19.999999 0 0 0 44 24 A 19.999999 19.999999 0 0 0 24 4 z M 24 8 A 15.999999 15.999999 0 0 1 40 24 A 15.999999 15.999999 0 0 1 24 40 A 15.999999 15.999999 0 0 1 8 24 A 15.999999 15.999999 0 0 1 24 8 z "
       transform="scale(0.26458333)" />
    <path
       id="path4981"
       style="fill:#ff0000;fill-opacity:1;stroke-width:0.231773"
       d="M 8.1894562,3.7621815 A 3.175,3.175 0 0 0 4.1049307,4.1049337 3.175,3.175 0 0 0 3.7621784,8.1894593 L 4.5266109,7.4250268 7.4250237,4.526614 Z M 8.9378109,4.5105362 8.1733784,5.2749687 5.2749656,8.1733815 4.5105331,8.937814 A 3.175,3.175 0 0 0 8.5950587,8.5950618 3.175,3.175 0 0 0 8.9378109,4.5105362 Z M 6.2173518,4.2375766 4.2375735,6.2173549 A 2.1166665,2.1166665 0 0 1 4.8532853,4.8532884 2.1166665,2.1166665 0 0 1 6.2173518,4.2375766 Z m 2.245064,2.245064 A 2.1166665,2.1166665 0 0 1 7.846704,7.8467071 2.1166665,2.1166665 0 0 1 6.4826375,8.4624189 Z" />
  </g>
</svg>
