<?xml version="1.0" encoding="UTF-8" standalone="no"?>
<svg
   xmlns:dc="http://purl.org/dc/elements/1.1/"
   xmlns:cc="http://creativecommons.org/ns#"
   xmlns:rdf="http://www.w3.org/1999/02/22-rdf-syntax-ns#"
   xmlns:svg="http://www.w3.org/2000/svg"
   xmlns="http://www.w3.org/2000/svg"
   xmlns:sodipodi="http://sodipodi.sourceforge.net/DTD/sodipodi-0.dtd"
   xmlns:inkscape="http://www.inkscape.org/namespaces/inkscape"
   width="48"
   height="48"
   viewBox="0 0 12.7 12.7"
   version="1.1"
   id="svg8"
   inkscape:version="1.0.1 (3bc2e813f5, 2020-09-07, custom)"
   sodipodi:docname="dnd-link.svg">
  <defs
     id="defs2" />
  <sodipodi:namedview
     id="base"
     pagecolor="#ffffff"
     bordercolor="#666666"
     borderopacity="1.0"
     inkscape:pageopacity="0.0"
     inkscape:pageshadow="2"
     inkscape:zoom="16.020833"
     inkscape:cx="24"
     inkscape:cy="24"
     inkscape:document-units="px"
     inkscape:current-layer="layer1"
     inkscape:document-rotation="0"
     showgrid="true"
     units="mm"
     inkscape:window-width="1906"
     inkscape:window-height="1008"
     inkscape:window-x="0"
     inkscape:window-y="0"
     inkscape:window-maximized="1"
     inkscape:snap-global="true"
     inkscape:snap-bbox="false"
     showborder="true"
     inkscape:snap-smooth-nodes="true"
     inkscape:object-paths="true"
     inkscape:snap-intersection-paths="false"
     inkscape:snap-object-midpoints="true"
     showguides="true"
     inkscape:guide-bbox="true">
    <inkscape:grid
       type="xygrid"
       id="grid18"
       empspacing="2" />
  </sodipodi:namedview>
  <metadata
     id="metadata5">
    <rdf:RDF>
      <cc:Work
         rdf:about="">
        <dc:format>image/svg+xml</dc:format>
        <dc:type
           rdf:resource="http://purl.org/dc/dcmitype/StillImage" />
        <dc:title />
      </cc:Work>
    </rdf:RDF>
  </metadata>
  <g
     inkscape:label="Layer 1"
     inkscape:groupmode="layer"
     id="layer1">
    <path
       id="path9967"
       style="fill:#ff0000;fill-opacity:0.33;stroke-width:0.875992"
       sodipodi:type="inkscape:offset"
       inkscape:radius="1.9980475"
       inkscape:original="M 20.664062 22.210938 C 19.751165 22.297587 18.844915 22.476601 17.929688 22.730469 C 17.577425 24.623772 15.925795 25.99712 14 25.998047 L 12.060547 25.998047 C 12.018587 25.998682 10.838135 26.268083 10.208984 26.638672 C 10.014068 26.753484 10.035498 26.764759 9.9980469 26.8125 L 9.9980469 34 C 9.9980469 36.426233 10.471686 38.247594 11.480469 40.029297 C 11.651352 40.331109 12.99627 41.869126 14.197266 42.949219 C 14.870115 43.554334 15.034358 43.66434 15.451172 44.001953 L 37.423828 44.001953 C 37.762168 43.278328 37.858208 43.157175 38.292969 42.082031 C 39.218946 39.792133 40.001953 36.84369 40.001953 36 L 40.001953 26.697266 C 39.784473 26.439317 39.378335 26.030481 38.837891 25.625 C 37.681085 24.75708 35.966683 24.035303 35.435547 23.958984 L 35.433594 23.958984 L 23.435547 22.246094 C 22.496554 22.130005 21.57696 22.124288 20.664062 22.210938 z "
       d="m 20.474609,20.222656 c -1.046776,0.09936 -2.068661,0.302024 -3.078125,0.582032 a 1.9982473,1.9982473 0 0 0 -1.43164,1.560546 C 15.786237,23.325189 14.976429,23.99953 14,24 h -1.939453 a 1.9982473,1.9982473 0 0 0 -0.0293,0 c -0.50152,0.0076 -0.324126,0.02971 -0.363281,0.03711 -0.03915,0.0074 -0.06689,0.0148 -0.09766,0.02148 -0.06153,0.01337 -0.128611,0.02756 -0.207031,0.04687 -0.156839,0.03863 -0.355143,0.09206 -0.582031,0.160156 -0.453777,0.136196 -0.9829401,0.29716 -1.5859375,0.652344 -0.1496935,0.08817 -0.2999972,0.163156 -0.546875,0.404297 -0.2468778,0.24114 -0.3653049,0.439654 -0.2226563,0.257812 A 1.9982473,1.9982473 0 0 0 8,26.8125 V 34 c 0,2.686267 0.5778724,4.95727 1.7421875,7.013672 0.2378915,0.420162 0.3340925,0.487429 0.5292965,0.722656 0.195205,0.235227 0.433573,0.508649 0.705078,0.806641 0.543012,0.595983 1.209385,1.285187 1.884766,1.892578 0.703531,0.632708 0.949749,0.809497 1.332031,1.119141 A 1.9982473,1.9982473 0 0 0 15.451172,46 h 21.972656 a 1.9982473,1.9982473 0 0 0 1.810547,-1.152344 c 0.313136,-0.66972 0.456614,-0.894036 0.910156,-2.015625 0.501342,-1.239794 0.944681,-2.604308 1.275391,-3.802734 C 41.750632,37.830871 42,37.039957 42,36 v -9.302734 a 1.9982473,1.9982473 0 0 0 -0.470703,-1.28711 c -0.337024,-0.399737 -0.820402,-0.878789 -1.492188,-1.382812 -0.744737,-0.558756 -1.554636,-1.00011 -2.291015,-1.34375 -0.73638,-0.343641 -1.181652,-0.581888 -2.025391,-0.703125 a 1.9982473,1.9982473 0 0 0 -0.238281,-0.01953 h 0.09375 L 23.71875,20.267578 a 1.9982473,1.9982473 0 0 0 -0.03711,-0.0039 c -1.088716,-0.1346 -2.160245,-0.140374 -3.207032,-0.04102 z"
       transform="matrix(0.26458333,0,0,0.26458333,-1.5874999,-4.7624998)" />
    <path
       id="rect9808"
       style="fill:#ff0000;fill-opacity:1;stroke-width:0.231773"
       d="M 4.3449545,0.0403078 C 3.3320964,0.0068036 2.1166668,0.3082775 2.1166668,0.7937501 V 1.0583334 H 1.5875001 C 1.0092645,1.0670858 -6.6157916e-5,1.5383648 1.4666666e-7,2.1166667 V 4.2333334 C 1.4666666e-7,5.0270834 0.17084173,5.71713 0.5291668,6.35 c 0.36871346,0.651218 1.5875,1.5875 1.5875,1.5875 h 6.8791665 c 0,0 1.0583337,-2.059419 1.0583337,-3.175 V 2.1166667 c 0,-0.5291666 -1.2435864,-1.462774 -2.116667,-1.5874999 L 4.7625001,0.0759644 C 4.6302084,0.057072 4.4896485,0.0450941 4.3449545,0.0403078 Z m -0.100769,1.0583333 c 0.1220248,0.00136 0.2447486,0.00945 0.3689697,0.024805 l 3.1744832,0.4532021 h 5.168e-4 C 7.9286849,1.5968407 8.3822871,1.7878108 8.6883587,2.017448 8.8313511,2.1247315 8.9388085,2.2329027 8.9963501,2.3011517 V 4.7625 c 0,0.2232263 -0.2071706,1.003335 -0.4521687,1.609204 C 8.4291509,6.656169 8.4037403,6.688224 8.3142212,6.879683 H 2.5006227 C 2.3903406,6.790357 2.3468847,6.761251 2.16886,6.601148 1.8510965,6.315373 1.4952536,5.908439 1.4500409,5.828585 1.1831337,5.357176 1.0578167,4.8752742 1.0578167,4.2333334 V 2.3316407 c 0.00991,-0.012631 0.00424,-0.015615 0.05581,-0.045992 C 1.28009,2.187597 1.5924179,2.116318 1.6035198,2.11615 h 0.513147 C 2.6262,2.1159047 3.0631938,1.7525398 3.1563967,1.2516033 3.5196275,1.1508497 3.878111,1.0945612 4.2441855,1.0986411 Z" />
    <path
       id="path11958"
       style="fill:#ff0000;fill-opacity:1;stroke-width:0.202801"
       d="m 8.2020873,2.3812502 c -1.0228783,-3e-7 -1.8520843,0.8292057 -1.8520833,1.8520831 -1e-6,1.0228777 0.829205,1.8520839 1.8520833,1.8520839 h 1.5875 c 1.0228767,0 1.8520827,-0.8292062 1.8520827,-1.8520839 0,-1.0228774 -0.829206,-1.8520834 -1.8520827,-1.8520831 z m -0.01344,1.0583331 h 1.600936 c 0.4383757,0 0.7937497,0.3553741 0.7937497,0.79375 0,0.438376 -0.355374,0.79375 -0.7937497,0.79375 h -1.5875 c -0.4383763,0 -0.7937193,-0.355374 -0.7937503,-0.79375 -3.1e-5,-0.4331822 0.347132,-0.79375 0.7803143,-0.79375 z"
       sodipodi:nodetypes="ssssssssssssss" />
    <path
       id="path11958-0"
       style="fill:#ff0000;fill-opacity:1;stroke-width:0.202801"
       d="m 10.84792,9.0092732 c 10e-7,-1.022878 -0.829205,-1.852084 -1.8520827,-1.852083 -1.022879,-10e-7 -1.8520846,0.829205 -1.8520836,1.852083 v 1.5874998 c -1e-6,1.022877 0.8292046,1.852083 1.8520836,1.852083 1.0228777,0 1.8520837,-0.829206 1.8520827,-1.852083 z m -1.0583327,-0.01344 v 1.6009358 c 0,0.438376 -0.355374,0.79375 -0.79375,0.79375 -0.438376,0 -0.79375,-0.355374 -0.79375,-0.79375 V 9.0092692 c 0,-0.438376 0.355374,-0.793719 0.79375,-0.79375 0.433182,-3.1e-5 0.79375,0.347132 0.79375,0.780314 z"
       sodipodi:nodetypes="ssssssssssssss" />
    <path
       id="rect12060"
       style="fill:#ff0000;fill-opacity:1;stroke-width:0.231773"
       d="m 8.9829173,3.981669 a 0.52916664,0.52916664 0 0 0 -0.516247,0.5291667 0.52916664,0.52916664 0 0 0 0,0.012919 v 4.2204145 a 0.52916664,0.52916664 0 0 0 0.529166,0.529166 0.52916664,0.52916664 0 0 0 0.529167,-0.529166 0.52916664,0.52916664 0 0 0 0,-0.01292 V 4.5108357 a 0.52916664,0.52916664 0 0 0 -0.529167,-0.5291667 0.52916664,0.52916664 0 0 0 -0.012919,0 z" />
  </g>
</svg>
