<?xml version="1.0" encoding="UTF-8" standalone="no"?>
<svg
   xmlns:dc="http://purl.org/dc/elements/1.1/"
   xmlns:cc="http://creativecommons.org/ns#"
   xmlns:rdf="http://www.w3.org/1999/02/22-rdf-syntax-ns#"
   xmlns:svg="http://www.w3.org/2000/svg"
   xmlns="http://www.w3.org/2000/svg"
   xmlns:sodipodi="http://sodipodi.sourceforge.net/DTD/sodipodi-0.dtd"
   xmlns:inkscape="http://www.inkscape.org/namespaces/inkscape"
   width="48"
   height="48"
   viewBox="0 0 12.7 12.7"
   version="1.1"
   id="svg8"
   inkscape:version="1.0.1 (3bc2e813f5, 2020-09-07, custom)"
   sodipodi:docname="left_ptr_watch-4.svg">
  <defs
     id="defs2" />
  <sodipodi:namedview
     id="base"
     pagecolor="#ffffff"
     bordercolor="#666666"
     borderopacity="1.0"
     inkscape:pageopacity="0.0"
     inkscape:pageshadow="2"
     inkscape:zoom="16.020833"
     inkscape:cx="24"
     inkscape:cy="23.452861"
     inkscape:document-units="px"
     inkscape:current-layer="layer1"
     inkscape:document-rotation="0"
     showgrid="false"
     units="px"
     inkscape:window-width="1906"
     inkscape:window-height="1008"
     inkscape:window-x="0"
     inkscape:window-y="0"
     inkscape:window-maximized="1"
     inkscape:snap-center="false"
     inkscape:snap-smooth-nodes="true">
    <inkscape:grid
       type="xygrid"
       id="grid18"
       empspacing="2" />
  </sodipodi:namedview>
  <metadata
     id="metadata5">
    <rdf:RDF>
      <cc:Work
         rdf:about="">
        <dc:format>image/svg+xml</dc:format>
        <dc:type
           rdf:resource="http://purl.org/dc/dcmitype/StillImage" />
        <dc:title></dc:title>
      </cc:Work>
    </rdf:RDF>
  </metadata>
  <g
     inkscape:label="Layer 1"
     inkscape:groupmode="layer"
     id="layer1">
    <path
       id="path11701"
       style="fill:#ff0000;fill-opacity:1;stroke-width:0.231773"
       d="M 12.274631,4.7625001 A 3.175,3.175 0 0 0 11.1125,0.42536917 3.175,3.175 0 0 0 6.7753694,1.5874998 3.175,3.175 0 0 0 7.9375,5.9246306 3.175,3.175 0 0 0 12.274631,4.7625001 Z M 11.564492,3.7414722 9.3313115,2.4521447 8.8021448,3.3686882 11.035325,4.658015 A 2.1166665,2.1166665 0 0 1 8.4666665,5.0080866 2.1166665,2.1166665 0 0 1 7.6919128,2.1166665 2.1166665,2.1166665 0 0 1 10.583333,1.3419127 2.1166665,2.1166665 0 0 1 11.564492,3.7414722 Z" />
    <path
       id="path3187"
       style="fill:#ff0000;fill-opacity:0.33;stroke:none;stroke-width:0.264583px;stroke-linecap:butt;stroke-linejoin:miter;stroke-opacity:1"
       sodipodi:type="inkscape:offset"
       inkscape:radius="-0.52916664"
       inkscape:original="M 0 0 L 0 10.054688 L 7.1445312 7.1445312 L 0 0 z "
       d="m 0.52929688,1.2792969 v 7.9882812 l 5.67578122,-2.3125 z" />
    <path
       id="path3178"
       style="fill:#ff0000;fill-opacity:1;stroke:none;stroke-width:0.264583px;stroke-linecap:butt;stroke-linejoin:miter;stroke-opacity:1"
       d="M 0,-3.3333333e-7 V 10.054167 L 7.14375,7.1437497 Z M 1.0588501,2.5548825 5.2694459,6.7654781 1.0588501,8.4806189 Z" />
  </g>
</svg>
