<?xml version="1.0" encoding="UTF-8" standalone="no"?>
<svg
   width="48"
   height="48"
   viewBox="0 0 12.7 12.7"
   version="1.1"
   id="svg8"
   inkscape:version="1.1.1 (3bf5ae0d25, 2021-09-20, custom)"
   sodipodi:docname="openhand.svg"
   xmlns:inkscape="http://www.inkscape.org/namespaces/inkscape"
   xmlns:sodipodi="http://sodipodi.sourceforge.net/DTD/sodipodi-0.dtd"
   xmlns="http://www.w3.org/2000/svg"
   xmlns:svg="http://www.w3.org/2000/svg"
   xmlns:rdf="http://www.w3.org/1999/02/22-rdf-syntax-ns#"
   xmlns:cc="http://creativecommons.org/ns#"
   xmlns:dc="http://purl.org/dc/elements/1.1/">
  <defs
     id="defs2" />
  <sodipodi:namedview
     id="base"
     pagecolor="#ffffff"
     bordercolor="#666666"
     borderopacity="1.0"
     inkscape:pageopacity="0.0"
     inkscape:pageshadow="2"
     inkscape:zoom="17.69828"
     inkscape:cx="36.557224"
     inkscape:cy="21.83828"
     inkscape:document-units="px"
     inkscape:current-layer="layer1"
     inkscape:document-rotation="0"
     showgrid="true"
     units="mm"
     inkscape:window-width="1906"
     inkscape:window-height="1008"
     inkscape:window-x="0"
     inkscape:window-y="0"
     inkscape:window-maximized="1"
     inkscape:snap-global="true"
     inkscape:snap-bbox="false"
     showborder="true"
     inkscape:snap-smooth-nodes="true"
     inkscape:pagecheckerboard="0">
    <inkscape:grid
       type="xygrid"
       id="grid18"
       empspacing="2" />
  </sodipodi:namedview>
  <metadata
     id="metadata5">
    <rdf:RDF>
      <cc:Work
         rdf:about="">
        <dc:format>image/svg+xml</dc:format>
        <dc:type
           rdf:resource="http://purl.org/dc/dcmitype/StillImage" />
        <dc:title />
      </cc:Work>
    </rdf:RDF>
  </metadata>
  <g
     inkscape:label="Layer 1"
     inkscape:groupmode="layer"
     id="layer1">
    <path
       id="path14487"
       style="fill:#ff0000;fill-opacity:0.33363506;stroke-width:0.875992"
       sodipodi:type="inkscape:offset"
       inkscape:radius="-1.960477"
       inkscape:original="M 26 0 C 23.238576 0 21 2.2385759 21 5 L 21 6.2539062 C 20.131825 4.1074404 17.854026 2.7861195 15.484375 3.2109375 C 12.766284 3.698222 10.958033 6.2975343 11.445312 9.015625 L 14 23.267578 L 14 27 C 11 24 10.208302 22.054699 5.9394531 22 C 3.7539958 22.033084 1.9997494 23.814292 2 26 C 2 26 4.9656061 31.203767 6 34 C 6.953664 36.577999 6.6457005 39.608049 8 42 C 9.3935627 44.461297 14 48 14 48 L 40 48 C 40 48 44 40.21637 44 36 L 44 25.232422 L 47.746094 14.664062 C 48.668782 12.061355 47.307793 9.2039362 44.705078 8.28125 C 43.2594 7.7687431 41.735584 7.961352 40.507812 8.6796875 L 40.601562 8.2421875 C 41.177555 5.5415034 39.454589 2.8845886 36.753906 2.3085938 C 34.271942 1.7792463 31.826737 3.1911481 31 5.5195312 L 31 5 C 31 2.2385759 28.761424 0 26 0 z "
       d="m 26,1.9609375 c -1.701904,0 -3.039062,1.3371586 -3.039062,3.0390625 v 1.2539062 a 1.960673,1.960673 0 0 1 -3.779297,0.734375 C 18.655537,5.687549 17.289937,4.8789096 15.830078,5.140625 14.155282,5.4408734 13.074681,6.9947129 13.375,8.6699219 l 2.554688,14.2519531 a 1.960673,1.960673 0 0 1 0.03125,0.345703 V 27 a 1.960673,1.960673 0 0 1 -3.347657,1.386719 C 11.024437,26.797874 10.059514,25.583356 9.2363281,24.9375 8.4218204,24.298453 7.7514687,23.996047 5.9570312,23.966797 c -1.0147541,0.02193 -1.7267277,0.776359 -1.8789062,1.742187 0.547128,0.957393 2.7134142,4.782771 3.7597656,7.611328 1.1747374,3.175618 0.9254141,6.04954 1.8671875,7.712891 0.4389439,0.775258 1.8642929,2.294334 3.1289059,3.431641 1.00508,0.903899 1.548463,1.317658 1.875,1.574218 h 24.029297 c 0.315932,-0.639046 0.720662,-1.40616 1.44336,-3.193359 C 41.145349,40.462498 42.039062,37.488228 42.039062,36 V 25.232422 a 1.960673,1.960673 0 0 1 0.113282,-0.654297 l 3.746094,-10.568359 c 0.568829,-1.604547 -0.243504,-3.312173 -1.847657,-3.88086 -0.890958,-0.3158532 -1.803383,-0.1962372 -2.552734,0.242188 a 1.960673,1.960673 0 0 1 -2.90625,-2.1015628 l 0.09375,-0.4375 -0.002,0.00195 C 39.038519,6.1698328 38.009935,4.5815056 36.345703,4.2265625 34.816142,3.9003412 33.350167,4.7605343 32.847656,6.1757812 a 1.960673,1.960673 0 0 1 -3.808594,-0.65625 V 5 C 29.039062,3.2980961 27.701904,1.9609375 26,1.9609375 Z"
       transform="scale(0.26458333)" />
    <path
       id="rect9808"
       style="fill:#ff0000;fill-opacity:1;stroke-width:0.875992"
       d="M 26,0 C 23.238576,0 21,2.2385759 21,5 V 6.2539062 C 20.131825,4.1074403 17.854026,2.7861195 15.484375,3.2109375 12.766284,3.698222 10.958032,6.2975343 11.445312,9.015625 L 14,23.267578 V 27 C 11,24 10.208302,22.054699 5.9394531,22 3.7539958,22.033084 1.9997494,23.814292 2,26 c 0,0 2.9656061,5.203767 4,8 0.953664,2.577999 0.6457005,5.608049 2,8 1.3935627,2.461297 6,6 6,6 h 26 c 0,0 4,-7.78363 4,-12 V 25.232422 l 3.746094,-10.56836 C 48.668782,12.061354 47.307793,9.2039362 44.705078,8.28125 43.2594,7.7687431 41.735584,7.961352 40.507812,8.6796875 l 0.09375,-0.4375 C 41.177555,5.5415034 39.454589,2.8845886 36.753906,2.3085938 34.271942,1.7792464 31.826737,3.1911481 31,5.5195312 V 5 C 31,2.2385759 28.761424,0 26,0 Z m 0,4 c 0.552285,0 1,0.447715 1,1 v 15 c 1.662185,-0.04507 3.285489,0.137871 4.917583,0.392409 L 34.732422,6.9902344 c 0.186177,-0.7596703 0.653418,-0.8728171 1.1875,-0.7695316 0.534082,0.1032855 0.88473,0.6473636 0.769531,1.1875 L 33.796875,20.966797 C 36.48251,21.649359 37.368126,22.245065 38.424579,23 l 3.667218,-10.341797 c 0.247367,-0.599687 0.745151,-0.782403 1.277345,-0.607472 0.532194,0.174931 0.830558,0.645975 0.607421,1.275391 L 40,24.546875 V 36 c 0,0.843274 -0.783032,3.792193 -1.708984,6.082031 C 37.856799,43.155829 37.761979,43.276685 37.423828,44 H 15.449219 C 15.032437,43.662355 14.868618,43.552987 14.197266,42.949219 12.996311,41.869163 11.651179,40.330803 11.480469,40.029297 10.967854,39.123922 11.156677,36.408659 9.7519531,32.611328 8.8790897,30.251754 7.5862885,27.820059 6.6113281,26.0625 c 0.6679764,0.05888 0.9712827,0.171382 1.3652344,0.480469 0.4979773,0.390703 1.3918887,1.480383 2.9121095,3 L 15.347656,34 H 18 V 22.912109 L 15.382812,8.3105469 c -0.09745,-0.5436185 0.203096,-1.0566561 0.806641,-1.1621094 0.603545,-0.1054533 1.012919,0.2518111 1.162108,0.8085937 L 20,22 c 1.205277,-1.523655 3.157103,-1.866522 5,-2 V 5 c 0,-0.552285 0.447715,-1 1,-1 z"
       transform="scale(0.26458333)"
       sodipodi:nodetypes="sscscccccssccsccsccscssscccczcccczccssccssscsccccczccccs" />
  </g>
</svg>
